^C:\USERS\PROBA\SOURCE\REPOS\HOMEWORK17\HOMEWORK17\SOURCE.CPP
C:\USERS\PROBA\SOURCE\REPOS\HOMEWORK17\HOMEWORK17\DEBUG\VC142.PDB
C:\USERS\PROBA\SOURCE\REPOS\HOMEWORK17\HOMEWORK17\DEBUG\VC142.IDB
C:\USERS\PROBA\SOURCE\REPOS\HOMEWORK17\HOMEWORK17\DEBUG\SOURCE.OBJ
